<?xml version="1.0" encoding="UTF-8" standalone="no"?>
<!-- Created with Inkscape (http://www.inkscape.org/) -->

<svg
   width="1280"
   height="720"
   viewBox="0 0 338.66667 190.5"
   version="1.1"
   id="svg5"
   xml:space="preserve"
   xmlns="http://www.w3.org/2000/svg"
   xmlns:svg="http://www.w3.org/2000/svg"><defs
     id="defs2" /><g
     id="layer1"><text
       xml:space="preserve"
       style="font-weight:bold;font-size:7.05556px;line-height:1.5;font-family:Suisse;-inkscape-font-specification:'Suisse Bold';stroke-width:0.264583"
       x="7.5186925"
       y="15.689625"
       id="text267"><tspan
         style="font-style:normal;font-variant:normal;font-weight:normal;font-stretch:normal;font-size:7.05556px;font-family:'Fira Code';-inkscape-font-specification:'Fira Code';fill:#ff00ff;stroke-width:0.264583"
         x="7.5186925"
         y="15.689625"
         id="tspan807"><tspan
   style="fill:#008080"
   id="tspan879">$parts = </tspan>[</tspan><tspan
         style="font-style:normal;font-variant:normal;font-weight:normal;font-stretch:normal;font-size:7.05556px;font-family:'Fira Code';-inkscape-font-specification:'Fira Code';fill:#ff00ff;stroke-width:0.264583"
         x="7.5186925"
         y="26.345043"
         id="tspan1496">  [</tspan><tspan
         style="font-style:normal;font-variant:normal;font-weight:normal;font-stretch:normal;font-size:7.05556px;font-family:'Fira Code';-inkscape-font-specification:'Fira Code';fill:#ff00ff;stroke-width:0.264583"
         x="7.5186925"
         y="37.000462"
         id="tspan1498">    <tspan
   style="fill:#ff0000"
   id="tspan2069">&quot;title&quot; =&gt; &quot;Fichier texte / markdown&quot;,</tspan></tspan><tspan
         style="font-style:normal;font-variant:normal;font-weight:normal;font-stretch:normal;font-size:7.05556px;font-family:'Fira Code';-inkscape-font-specification:'Fira Code';fill:#ff0000;stroke-width:0.264583"
         x="7.5186925"
         y="47.65588"
         id="tspan1500">    &quot;<tspan style="text-decoration:underline; ">file</tspan>&quot; =&gt; &quot;text/file.md&quot;,</tspan><tspan
         style="font-style:normal;font-variant:normal;font-weight:normal;font-stretch:normal;font-size:7.05556px;font-family:'Fira Code';-inkscape-font-specification:'Fira Code';fill:#ff0000;stroke-width:0.264583"
         x="7.5186925"
         y="58.311302"
         id="tspan1502">    &quot;template&quot; =&gt; &quot;default&quot;</tspan><tspan
         style="font-style:normal;font-variant:normal;font-weight:normal;font-stretch:normal;font-size:7.05556px;font-family:'Fira Code';-inkscape-font-specification:'Fira Code';fill:#ff00ff;stroke-width:0.264583"
         x="7.5186925"
         y="68.966721"
         id="tspan1504">  ],</tspan><tspan
         style="font-style:normal;font-variant:normal;font-weight:normal;font-stretch:normal;font-size:7.05556px;font-family:'Fira Code';-inkscape-font-specification:'Fira Code';fill:#ff00ff;stroke-width:0.264583"
         x="7.5186925"
         y="79.622139"
         id="tspan1506">  [</tspan><tspan
         style="font-style:normal;font-variant:normal;font-weight:normal;font-stretch:normal;font-size:7.05556px;font-family:'Fira Code';-inkscape-font-specification:'Fira Code';fill:#ff0000;stroke-width:0.264583"
         x="7.5186925"
         y="90.277557"
         id="tspan809"
         dx="0 0 0 0 0 0 0 0 0 0 0 0 0 0 0 0">    &quot;title&quot; =&gt; &quot;Un tas d’images&quot;,</tspan><tspan
         style="font-style:normal;font-variant:normal;font-weight:normal;font-stretch:normal;font-size:7.05556px;font-family:'Fira Code';-inkscape-font-specification:'Fira Code';fill:#ff0000;stroke-width:0.264583"
         x="7.5186925"
         y="100.93298"
         id="tspan811">    &quot;<tspan style="text-decoration:underline; ">folder</tspan>&quot; =&gt; &quot;images/selection/&quot;,</tspan><tspan
         style="font-style:normal;font-variant:normal;font-weight:normal;font-stretch:normal;font-size:7.05556px;font-family:'Fira Code';-inkscape-font-specification:'Fira Code';fill:#ff0000;stroke-width:0.264583"
         x="7.5186925"
         y="111.58839"
         id="tspan813">    &quot;template&quot; =&gt; &quot;autofolder&quot;</tspan><tspan
         style="font-style:normal;font-variant:normal;font-weight:normal;font-stretch:normal;font-size:7.05556px;font-family:'Fira Code';-inkscape-font-specification:'Fira Code';stroke-width:0.264583"
         x="7.5186925"
         y="122.24381"
         id="tspan815">  <tspan
   style="fill:#ff00ff"
   id="tspan883">],</tspan></tspan><tspan
         style="font-style:normal;font-variant:normal;font-weight:normal;font-stretch:normal;font-size:7.05556px;font-family:'Fira Code';-inkscape-font-specification:'Fira Code';fill:#ff00ff;stroke-width:0.264583"
         x="7.5186925"
         y="132.89923"
         id="tspan817">  [</tspan><tspan
         style="font-style:normal;font-variant:normal;font-weight:normal;font-stretch:normal;font-size:7.05556px;font-family:'Fira Code';-inkscape-font-specification:'Fira Code';fill:#ff0000;stroke-width:0.264583"
         x="7.5186925"
         y="143.55466"
         id="tspan819">    &quot;title&quot; =&gt; &quot;Une écriture collective&quot;,</tspan><tspan
         style="font-style:normal;font-variant:normal;font-weight:normal;font-stretch:normal;font-size:7.05556px;font-family:'Fira Code';-inkscape-font-specification:'Fira Code';fill:#ff0000;stroke-width:0.264583"
         x="7.5186925"
         y="154.21007"
         id="tspan821">    &quot;<tspan style="text-decoration:underline; ">pad</tspan>&quot; =&gt; &quot;https://annuel.framapad.org/p/mypad&quot;,</tspan><tspan
         style="font-style:normal;font-variant:normal;font-weight:normal;font-stretch:normal;font-size:7.05556px;font-family:'Fira Code';-inkscape-font-specification:'Fira Code';fill:#ff0000;stroke-width:0.264583"
         x="7.5186925"
         y="164.86549"
         id="tspan823">    &quot;template&quot; =&gt; &quot;default&quot;</tspan><tspan
         style="font-style:normal;font-variant:normal;font-weight:normal;font-stretch:normal;font-size:7.05556px;font-family:'Fira Code';-inkscape-font-specification:'Fira Code';fill:#ff00ff;stroke-width:0.264583"
         x="7.5186925"
         y="175.5209"
         id="tspan835">  ],</tspan><tspan
         style="font-style:normal;font-variant:normal;font-weight:normal;font-stretch:normal;font-size:7.05556px;font-family:'Fira Code';-inkscape-font-specification:'Fira Code';stroke-width:0.264583"
         x="7.5186925"
         y="186.17633"
         id="tspan967" /><tspan
         style="font-style:normal;font-variant:normal;font-weight:normal;font-stretch:normal;font-size:7.05556px;font-family:'Fira Code';-inkscape-font-specification:'Fira Code';stroke-width:0.264583"
         x="7.5186925"
         y="196.83174"
         id="tspan969" /><tspan
         style="font-style:normal;font-variant:normal;font-weight:normal;font-stretch:normal;font-size:7.05556px;font-family:'Fira Code';-inkscape-font-specification:'Fira Code';fill:#ff00ff;stroke-width:0.264583"
         x="7.5186925"
         y="207.48717"
         id="tspan837">  [</tspan><tspan
         style="font-style:normal;font-variant:normal;font-weight:normal;font-stretch:normal;font-size:7.05556px;font-family:'Fira Code';-inkscape-font-specification:'Fira Code';stroke-width:0.264583"
         x="7.5186925"
         y="218.14258"
         id="tspan839">    &quot;title&quot; =&gt; &quot;Entretiens&quot;,</tspan><tspan
         style="font-style:normal;font-variant:normal;font-weight:normal;font-stretch:normal;font-size:7.05556px;font-family:'Fira Code';-inkscape-font-specification:'Fira Code';stroke-width:0.264583"
         x="7.5186925"
         y="228.798"
         id="tspan841">    &quot;file&quot; =&gt; &quot;text/7.entretiens.md&quot;,</tspan><tspan
         style="font-style:normal;font-variant:normal;font-weight:normal;font-stretch:normal;font-size:7.05556px;font-family:'Fira Code';-inkscape-font-specification:'Fira Code';stroke-width:0.264583"
         x="7.5186925"
         y="239.45343"
         id="tspan843">    &quot;template&quot; =&gt; &quot;interview&quot;</tspan><tspan
         style="font-style:normal;font-variant:normal;font-weight:normal;font-stretch:normal;font-size:7.05556px;font-family:'Fira Code';-inkscape-font-specification:'Fira Code';stroke-width:0.264583"
         x="7.5186925"
         y="250.10884"
         id="tspan845">  ],</tspan><tspan
         style="font-style:normal;font-variant:normal;font-weight:normal;font-stretch:normal;font-size:7.05556px;font-family:'Fira Code';-inkscape-font-specification:'Fira Code';stroke-width:0.264583"
         x="7.5186925"
         y="260.76425"
         id="tspan847">  [</tspan><tspan
         style="font-style:normal;font-variant:normal;font-weight:normal;font-stretch:normal;font-size:7.05556px;font-family:'Fira Code';-inkscape-font-specification:'Fira Code';stroke-width:0.264583"
         x="7.5186925"
         y="271.41968"
         id="tspan849">    &quot;title&quot; =&gt; &quot;Glossaire&quot;,</tspan><tspan
         style="font-style:normal;font-variant:normal;font-weight:normal;font-stretch:normal;font-size:7.05556px;font-family:'Fira Code';-inkscape-font-specification:'Fira Code';stroke-width:0.264583"
         x="7.5186925"
         y="282.0751"
         id="tspan851">    &quot;file&quot; =&gt; &quot;text/8.glossaire.md&quot;,</tspan><tspan
         style="font-style:normal;font-variant:normal;font-weight:normal;font-stretch:normal;font-size:7.05556px;font-family:'Fira Code';-inkscape-font-specification:'Fira Code';stroke-width:0.264583"
         x="7.5186925"
         y="292.73053"
         id="tspan853">    &quot;template&quot; =&gt; &quot;references&quot;</tspan><tspan
         style="font-style:normal;font-variant:normal;font-weight:normal;font-stretch:normal;font-size:7.05556px;font-family:'Fira Code';-inkscape-font-specification:'Fira Code';stroke-width:0.264583"
         x="7.5186925"
         y="303.38593"
         id="tspan855">  ],</tspan><tspan
         style="font-style:normal;font-variant:normal;font-weight:normal;font-stretch:normal;font-size:7.05556px;font-family:'Fira Code';-inkscape-font-specification:'Fira Code';stroke-width:0.264583"
         x="7.5186925"
         y="314.04135"
         id="tspan857">  [</tspan><tspan
         style="font-style:normal;font-variant:normal;font-weight:normal;font-stretch:normal;font-size:7.05556px;font-family:'Fira Code';-inkscape-font-specification:'Fira Code';stroke-width:0.264583"
         x="7.5186925"
         y="324.69678"
         id="tspan859">    &quot;title&quot; =&gt; &quot;Références&quot;,</tspan><tspan
         style="font-style:normal;font-variant:normal;font-weight:normal;font-stretch:normal;font-size:7.05556px;font-family:'Fira Code';-inkscape-font-specification:'Fira Code';stroke-width:0.264583"
         x="7.5186925"
         y="335.3522"
         id="tspan861">    &quot;file&quot; =&gt; &quot;text/9.references.md&quot;,</tspan><tspan
         style="font-style:normal;font-variant:normal;font-weight:normal;font-stretch:normal;font-size:7.05556px;font-family:'Fira Code';-inkscape-font-specification:'Fira Code';stroke-width:0.264583"
         x="7.5186925"
         y="346.0076"
         id="tspan863">    &quot;template&quot; =&gt; &quot;references&quot;</tspan><tspan
         style="font-style:normal;font-variant:normal;font-weight:normal;font-stretch:normal;font-size:7.05556px;font-family:'Fira Code';-inkscape-font-specification:'Fira Code';stroke-width:0.264583"
         x="7.5186925"
         y="356.66302"
         id="tspan865">  ],</tspan><tspan
         style="font-style:normal;font-variant:normal;font-weight:normal;font-stretch:normal;font-size:7.05556px;font-family:'Fira Code';-inkscape-font-specification:'Fira Code';stroke-width:0.264583"
         x="7.5186925"
         y="367.31845"
         id="tspan867">  [</tspan><tspan
         style="font-style:normal;font-variant:normal;font-weight:normal;font-stretch:normal;font-size:7.05556px;font-family:'Fira Code';-inkscape-font-specification:'Fira Code';stroke-width:0.264583"
         x="7.5186925"
         y="377.97388"
         id="tspan869">    &quot;title&quot; =&gt; &quot;Remerciements&quot;,</tspan><tspan
         style="font-style:normal;font-variant:normal;font-weight:normal;font-stretch:normal;font-size:7.05556px;font-family:'Fira Code';-inkscape-font-specification:'Fira Code';stroke-width:0.264583"
         x="7.5186925"
         y="388.6293"
         id="tspan871">    &quot;file&quot; =&gt; &quot;text/10.remerciements.md&quot;,</tspan><tspan
         style="font-style:normal;font-variant:normal;font-weight:normal;font-stretch:normal;font-size:7.05556px;font-family:'Fira Code';-inkscape-font-specification:'Fira Code';stroke-width:0.264583"
         x="7.5186925"
         y="399.2847"
         id="tspan873">    &quot;template&quot; =&gt; &quot;thanks&quot;</tspan><tspan
         style="font-style:normal;font-variant:normal;font-weight:normal;font-stretch:normal;font-size:7.05556px;font-family:'Fira Code';-inkscape-font-specification:'Fira Code';stroke-width:0.264583"
         x="7.5186925"
         y="409.94012"
         id="tspan875">  ]</tspan><tspan
         style="font-style:normal;font-variant:normal;font-weight:normal;font-stretch:normal;font-size:7.05556px;font-family:'Fira Code';-inkscape-font-specification:'Fira Code';stroke-width:0.264583"
         x="7.5186925"
         y="420.59555"
         id="tspan877">];</tspan></text></g></svg>
