<?xml version="1.0" encoding="UTF-8" standalone="no"?>
<!-- Created with Inkscape (http://www.inkscape.org/) -->

<svg
   width="1280"
   height="720"
   viewBox="0 0 338.66667 190.5"
   version="1.1"
   id="svg5"
   xml:space="preserve"
   inkscape:version="1.2.2 (1:1.2.2+202212051552+b0a8486541)"
   sodipodi:docname="md-blockquote.svg"
   xmlns:inkscape="http://www.inkscape.org/namespaces/inkscape"
   xmlns:sodipodi="http://sodipodi.sourceforge.net/DTD/sodipodi-0.dtd"
   xmlns="http://www.w3.org/2000/svg"
   xmlns:svg="http://www.w3.org/2000/svg"><sodipodi:namedview
     id="namedview7"
     pagecolor="#ffffff"
     bordercolor="#666666"
     borderopacity="1.0"
     inkscape:showpageshadow="2"
     inkscape:pageopacity="0.0"
     inkscape:pagecheckerboard="0"
     inkscape:deskcolor="#d1d1d1"
     inkscape:document-units="mm"
     showgrid="false"
     inkscape:zoom="1.0827061"
     inkscape:cx="459.03502"
     inkscape:cy="129.30564"
     inkscape:window-width="1920"
     inkscape:window-height="1011"
     inkscape:window-x="0"
     inkscape:window-y="32"
     inkscape:window-maximized="1"
     inkscape:current-layer="layer1"
     showguides="true"><sodipodi:guide
       position="121.26523,40.059425"
       orientation="0,-1"
       id="guide467"
       inkscape:locked="false" /></sodipodi:namedview><defs
     id="defs2" /><g
     inkscape:label="Calque 1"
     inkscape:groupmode="layer"
     id="layer1"><rect
       style="fill:#00ffff;stroke:none;stroke-width:0.131749;-inkscape-stroke:none;stop-color:#000000"
       id="rect3052"
       width="323.02533"
       height="43.009502"
       x="7.5569167"
       y="29.223516" /><rect
       style="fill:#00ffff;stroke:none;stroke-width:0.0508534;-inkscape-stroke:none;stop-color:#000000"
       id="rect3052-9"
       width="197.33923"
       height="10.488981"
       x="7.4280682"
       y="72.044846" /><text
       xml:space="preserve"
       style="font-weight:bold;font-size:7.05556px;line-height:1.5;font-family:Suisse;-inkscape-font-specification:'Suisse Bold';stroke-width:0.264583"
       x="7.5186925"
       y="15.689625"
       id="text267"
       sodipodi:insensitive="true"><tspan
         style="font-style:normal;font-variant:normal;font-weight:normal;font-stretch:normal;font-size:7.05556px;font-family:'Fira Code';-inkscape-font-specification:'Fira Code';stroke-width:0.264583"
         x="7.5186925"
         y="15.689625"
         id="tspan877"
         sodipodi:role="line">##  Changer le langage par le design</tspan><tspan
         style="font-style:normal;font-variant:normal;font-weight:normal;font-stretch:normal;font-size:7.05556px;font-family:'Fira Code';-inkscape-font-specification:'Fira Code';stroke-width:0.264583"
         x="7.5186925"
         y="26.345043"
         sodipodi:role="line"
         id="tspan2089" /><tspan
         style="font-style:normal;font-variant:normal;font-weight:normal;font-stretch:normal;font-size:7.05556px;font-family:'Fira Code';-inkscape-font-specification:'Fira Code';stroke-width:0.264583"
         x="7.5186925"
         y="37.000462"
         sodipodi:role="line"
         id="tspan2091">&gt;_« Afin de permettre aux femmes de prendre la place qui leur est due dans </tspan><tspan
         style="font-style:normal;font-variant:normal;font-weight:normal;font-stretch:normal;font-size:7.05556px;font-family:'Fira Code';-inkscape-font-specification:'Fira Code';stroke-width:0.264583"
         x="7.5186925"
         y="47.65588"
         sodipodi:role="line"
         id="tspan2099">l’espace public, il faut d’abord leur donner l’occasion de dire ==“je”==. </tspan><tspan
         style="font-style:normal;font-variant:normal;font-weight:normal;font-stretch:normal;font-size:7.05556px;font-family:'Fira Code';-inkscape-font-specification:'Fira Code';stroke-width:0.264583"
         x="7.5186925"
         y="58.311302"
         sodipodi:role="line"
         id="tspan2101">Je veux marteler cette idée, car c’est une grille de lecture qui permet de </tspan><tspan
         style="font-style:normal;font-variant:normal;font-weight:normal;font-stretch:normal;font-size:7.05556px;font-family:'Fira Code';-inkscape-font-specification:'Fira Code';stroke-width:0.264583"
         x="7.5186925"
         y="68.966721"
         sodipodi:role="line"
         id="tspan2103">comprendre tout le mouvement féministe actuel. #MeToo, c’était ça. C’était </tspan><tspan
         style="font-style:normal;font-variant:normal;font-weight:normal;font-stretch:normal;font-size:7.05556px;font-family:'Fira Code';-inkscape-font-specification:'Fira Code';stroke-width:0.264583"
         x="7.5186925"
         y="79.622139"
         sodipodi:role="line"
         id="tspan2105">dire “moi”, c’était dire “je”[^presentes]. »_</tspan><tspan
         style="font-style:normal;font-variant:normal;font-weight:normal;font-stretch:normal;font-size:7.05556px;font-family:'Fira Code';-inkscape-font-specification:'Fira Code';stroke-width:0.264583"
         x="7.5186925"
         y="90.277557"
         sodipodi:role="line"
         id="tspan2093" /><tspan
         style="font-style:normal;font-variant:normal;font-weight:normal;font-stretch:normal;font-size:7.05556px;font-family:'Fira Code';-inkscape-font-specification:'Fira Code';stroke-width:0.264583"
         x="7.5186925"
         y="100.93298"
         sodipodi:role="line"
         id="tspan2095">[^presentes]: _Présentes : Villes, médias, politiques… Quelle place pour </tspan><tspan
         style="font-style:normal;font-variant:normal;font-weight:normal;font-stretch:normal;font-size:7.05556px;font-family:'Fira Code';-inkscape-font-specification:'Fira Code';stroke-width:0.264583"
         x="7.5186925"
         y="111.58839"
         sodipodi:role="line"
         id="tspan2107">les femmes ?_, Lauren Bastide, Éditions Allary, 2020, _Chapitre 3 : </tspan><tspan
         style="font-style:normal;font-variant:normal;font-weight:normal;font-stretch:normal;font-size:7.05556px;font-family:'Fira Code';-inkscape-font-specification:'Fira Code';stroke-width:0.264583"
         x="7.5186925"
         y="122.24381"
         sodipodi:role="line"
         id="tspan2097">Présentes en résistance, Permettre aux femmes de dire “je”_, p. 197-198.</tspan><tspan
         style="font-style:normal;font-variant:normal;font-weight:normal;font-stretch:normal;font-size:7.05556px;font-family:'Fira Code';-inkscape-font-specification:'Fira Code';stroke-width:0.264583"
         x="7.5186925"
         y="132.89923"
         sodipodi:role="line"
         id="tspan2115" /><tspan
         style="font-style:normal;font-variant:normal;font-weight:normal;font-stretch:normal;font-size:7.05556px;font-family:'Fira Code';-inkscape-font-specification:'Fira Code';stroke-width:0.264583"
         x="7.5186925"
         y="143.55466"
         sodipodi:role="line"
         id="tspan2117">Le design graphique féministe utilise les mots pour faire exister des </tspan><tspan
         style="font-style:normal;font-variant:normal;font-weight:normal;font-stretch:normal;font-size:7.05556px;font-family:'Fira Code';-inkscape-font-specification:'Fira Code';stroke-width:0.264583"
         x="7.5186925"
         y="154.21007"
         sodipodi:role="line"
         id="tspan2121">récits et des formes dans l’espace public qui sont souvent omis par les </tspan><tspan
         style="font-style:normal;font-variant:normal;font-weight:normal;font-stretch:normal;font-size:7.05556px;font-family:'Fira Code';-inkscape-font-specification:'Fira Code';stroke-width:0.264583"
         x="7.5186925"
         y="164.86549"
         sodipodi:role="line"
         id="tspan2123">médias traditionnels. Comme a si bien su le formuler Marie Dasylva</tspan><tspan
         style="font-style:normal;font-variant:normal;font-weight:normal;font-stretch:normal;font-size:7.05556px;font-family:'Fira Code';-inkscape-font-specification:'Fira Code';stroke-width:0.264583"
         x="7.5186925"
         y="175.5209"
         sodipodi:role="line"
         id="tspan2125">[^Dasylva] sur la scène de Présent⋅es au Carreau du Temple : _« On prend </tspan><tspan
         style="font-style:normal;font-variant:normal;font-weight:normal;font-stretch:normal;font-size:7.05556px;font-family:'Fira Code';-inkscape-font-specification:'Fira Code';stroke-width:0.264583"
         x="7.5186925"
         y="186.17633"
         sodipodi:role="line"
         id="tspan2127">du pouvoir quand on commence à raconter nos histoires ».</tspan></text></g></svg>
